7/30/2016 4:05:30 PM
Uploading successful

8/27/2016 12:45:41 PM
Carton:164120800002     already uploaded to SAP

8/27/2016 12:58:09 PM
Carton: 164120800002 Undo stock in successful!

8/27/2016 12:58:16 PM
Carton: 164120800005 Undo stock in successful!

8/27/2016 12:58:18 PM
Carton: 164120800007 Undo stock in successful!

8/27/2016 12:58:26 PM
Carton: 164120800008 Undo stock in successful!

8/27/2016 12:58:28 PM
Carton: 164120800009 Undo stock in successful!

8/27/2016 12:58:37 PM
Carton: 164120800010 Undo stock in successful!

8/27/2016 12:58:39 PM
Carton: 164120800011 Undo stock in successful!

8/27/2016 12:58:46 PM
Carton: 164120800012 Undo stock in successful!

8/27/2016 12:58:48 PM
Carton: 164120800014 Undo stock in successful!

8/27/2016 12:59:02 PM
Carton: 164120800016 Undo stock in successful!

8/27/2016 12:59:04 PM
Carton: 164120800017 Undo stock in successful!

8/27/2016 12:59:11 PM
Carton No: 164120800014 has already Cancel stock in

8/27/2016 12:59:19 PM
Carton: 164120800018 Undo stock in successful!

8/27/2016 12:59:21 PM
Carton: 164120800019 Undo stock in successful!

8/27/2016 12:59:31 PM
Carton: 164120800020 Undo stock in successful!

8/27/2016 12:59:33 PM
Carton: 164120800021 Undo stock in successful!

8/27/2016 12:59:40 PM
Carton: 164120800022 Undo stock in successful!

8/27/2016 12:59:42 PM
Carton: 164120800023 Undo stock in successful!

8/27/2016 12:59:53 PM
Carton: 164120800024 Undo stock in successful!

8/27/2016 12:59:54 PM
Carton: 164120800025 Undo stock in successful!

8/27/2016 1:00:01 PM
Carton: 164120800026 Undo stock in successful!

8/27/2016 1:00:03 PM
Carton: 164120800028 Undo stock in successful!

8/27/2016 1:00:11 PM
Carton: 164120800029 Undo stock in successful!

8/27/2016 1:00:13 PM
Carton: 164120800030 Undo stock in successful!

8/27/2016 1:00:20 PM
Carton: 164120800031 Undo stock in successful!

8/27/2016 1:00:22 PM
Carton: 164120800032 Undo stock in successful!

8/27/2016 1:00:22 PM
No Stock in Data, Please confirm

8/27/2016 1:00:30 PM
Carton: 164120800033 Undo stock in successful!

8/27/2016 1:00:32 PM
Carton: 164120800035 Undo stock in successful!

8/27/2016 1:00:33 PM
Carton No: 164120800040 has not stocked in data record

8/27/2016 1:00:37 PM
Carton No: 164120800041 has not stocked in data record

8/27/2016 1:00:43 PM
Carton No: 164120800042 has not stocked in data record

8/27/2016 1:00:47 PM
Carton No: 164120800043 has not stocked in data record

8/27/2016 1:00:49 PM
Carton No: 164120800044 has not stocked in data record

